<?xml version="1.0" encoding="UTF-8" standalone="no"?>
<svg
   xmlns:dc="http://purl.org/dc/elements/1.1/"
   xmlns:cc="http://creativecommons.org/ns#"
   xmlns:rdf="http://www.w3.org/1999/02/22-rdf-syntax-ns#"
   xmlns:svg="http://www.w3.org/2000/svg"
   xmlns="http://www.w3.org/2000/svg"
   xmlns:sodipodi="http://sodipodi.sourceforge.net/DTD/sodipodi-0.dtd"
   xmlns:inkscape="http://www.inkscape.org/namespaces/inkscape"
   version="1.1"
   width="24"
   height="24"
   viewBox="0 0 24 24"
   id="svg4"
   sodipodi:docname="pdf-document-box-outline.svg"
   inkscape:version="0.92.4 (f8dce91, 2019-08-02)">
  <metadata
     id="metadata10">
    <rdf:RDF>
      <cc:Work
         rdf:about="">
        <dc:format>image/svg+xml</dc:format>
        <dc:type
           rdf:resource="http://purl.org/dc/dcmitype/StillImage" />
        <dc:title></dc:title>
      </cc:Work>
    </rdf:RDF>
  </metadata>
  <defs
     id="defs8" />
  <sodipodi:namedview
     pagecolor="#ffffff"
     bordercolor="#666666"
     borderopacity="1"
     objecttolerance="10"
     gridtolerance="10"
     guidetolerance="10"
     inkscape:pageopacity="0"
     inkscape:pageshadow="2"
     inkscape:window-width="2560"
     inkscape:window-height="1310"
     id="namedview6"
     showgrid="false"
     inkscape:zoom="9.8333333"
     inkscape:cx="12.20339"
     inkscape:cy="11.491525"
     inkscape:window-x="0"
     inkscape:window-y="27"
     inkscape:window-maximized="1"
     inkscape:current-layer="svg4" />
  <path
     d="m 1.9717514,0.05084746 c -1.00966098,0 -1.81920903,0.83468926 -1.81920903,1.87570624 V 15.056497 c 0,1.041017 0.80954805,1.875706 1.81920903,1.875706 H 14.706214 c 1.009661,0 1.819209,-0.834689 1.819209,-1.875706 V 1.9265537 c 0,-1.04101698 -0.809548,-1.87570624 -1.819209,-1.87570624 H 1.9717514 m 0,1.87570624 H 14.706214 V 15.056497 H 1.9717514 V 1.9265537 M 3.7909605,3.8022599 V 5.6779661 H 12.887005 V 3.8022599 H 3.7909605 m 0,3.7514124 V 9.4293781 H 12.887005 V 7.5536723 H 3.7909605 m 0,3.7514117 v 1.875707 h 6.3672315 v -1.875707 z"
     id="path2"
     inkscape:connector-curvature="0"
     style="stroke-width:0.92362082" />
  <path
     inkscape:connector-curvature="0"
     d="m 18.559322,18.184322 h 0.637712 v 1.665254 h -0.637712 v -1.665254 m -3.188559,0.555085 h 0.637711 v -0.555085 h -0.637711 v 0.555085 m 8.290254,-3.052967 v 6.661017 a 1.2754237,1.1101695 0 0 1 -1.275424,1.11017 h -7.652542 a 1.2754237,1.1101695 0 0 1 -1.275424,-1.11017 V 15.68644 a 1.2754237,1.1101695 0 0 1 1.275424,-1.110169 h 7.652542 a 1.2754237,1.1101695 0 0 1 1.275424,1.110169 m -6.695975,2.497882 a 0.9565678,0.83262712 0 0 0 -0.956568,-0.832627 h -1.594279 v 3.330508 h 0.956568 v -1.110169 h 0.637711 a 0.9565678,0.83262712 0 0 0 0.956568,-0.832627 v -0.555085 m 3.18856,0 a 0.9565678,0.83262712 0 0 0 -0.956568,-0.832627 h -1.59428 v 3.330508 h 1.59428 a 0.9565678,0.83262712 0 0 0 0.956568,-0.832627 v -1.665254 m 2.550847,-0.832627 h -1.913136 v 3.330508 h 0.956568 v -1.110169 h 0.956568 v -0.832627 h -0.956568 v -0.555085 h 0.956568 z"
     id="path2-3"
     style="stroke-width:0.59496564" />
</svg>
